45. -	-c,	Reported Residence,
0 
	,:	a ,-4cs% .	Jan. 1, 1949.
	!	AM
a;	'	Fula. NE.	. cp
% d2	Occupation.	o 0
cl bz 	
bn ,
el	a)	9('1
	PO ..4	. 4	65	Street and Number.
Prince StreetContinued
D	Oliva Philip	36 retired	67 here
E	Lombardozzi Anthony	36 clerk	41 "
F Lombardozzi Ida-	36 housewife	41 "
G*Bartolucci Ignazio	36 retired 	72	"
H*Bartolucci Manuela-	36 housewife	28 "
lc Arena Marie-	36 "	25 "
L	Arena Salvatore	36 laborer	31 "
M DeLuca Carmella-	36 housewife	34 "
N	DeLuca Charles	36 shoewkr	37 "
o	Freda Albert	36 clerk	45 "
P *Freda Concetta-	36 housewife	70 "
R Matarazzo Albert	36 kitchenwkr 29 "
s Matarazzo Rose-	36 housewife	25 "
T Cataldo Benjamin	36 retired	75 "
II *Cataldo Filomenia-	36 housewife	74 "
/	Capraro Antonette-	36 clerk	33 "
w Capraro Frances-	36 marker	25 "
x Capraro Paula-4	36 housewife	63 "
Y Gonsalves Carmella-	36 "	34 "
z*Incarelli Mary-	36 stitcher	21	"
3086
A Ventresco Gaetano	36 laborer	48 "
B	Giorgianni Carmella-t	36 housewife	43 "
c Giorgianni Joseph	36 barber	55 "
D	Ventura Josephine-	36 housewife	27 "
E	Ventura William	36 laborer	28 "
F Ferullo Lucy-	36 housewife	77 "
G	Aracri Rocco	36 tailor	60 "
H	Aracri Theresa-	36 housewife	49 "
m*DelloRusso Amelia- 40-42 "	62 "
N	DelloRusso Joseph	40-42 retired	70 "
o	Vozzella Albert	40-42 laborer	31	"
P	Vozzella Carmella-	40-42 housewife	28 "
s Fuccillo Dorothy-4	50 shoewkr	23 "
T Fuccillo Guy	50 musician	45 "
u	Fuccillo Lena-	50 housewife	45 "
/	Fuccillo Richard	50 shipper	21	"
w*DeSisto Clementine-4	50 housewife	62 "
x DeSisto John	50 merchant	29 "
Y Guanzi Ralph E	50 restaurateur 29 "
z Guanzi Salvatore	50 retired	69 "
44
