-	"0	Reported Residence,
0
0 , c;	ma) 	Jan. 1, 1949.
s.:	0 . if,	Occupation.	0 cl)
a en 	
Fula. NAME.	TS 0 cb
..9
7ii d -	"4
a	r	2	Street and Number.
Savoy PlaceContinued
) Hutt Vera-f	15 housewife	32 here
P Eaton James K	15 retired	65 "
I Eaton Margaret-4	15 housewife	57 "
Sears Clarence W	15 laborer	38 "
r Sears Dorothy-f	15 housewife	33 "
T Wilson Inez-	15 "	39 New Bedford
r Tobey Ralph	15 laborer	41 32 Seneca
r Roberts Thomas, jr	15 "	25 here
Savoy Street
: Bellizzotti John	7 retired	69 265 Bolton
Storlazzi Dominic	7 "	75 21 Middlesex
Miller Donald	7 chauffeur	40 9 Conway
11142
Miller Sarah-	7 housewife	31 1330 Wash'n
Shehidi Henry	7 clerk	34 1330 "
Shehidi Lorraine-f	7	ii	25 1330 "
Shehidi Sadie-	7 housewife	62 1330 "
Shehidi Sarkas	7 student	20 1330 "
George John	7 retired	62 1330 "
Yunos Elizabeth-	7 at home	64 1330 "
Tarbox Alice G-	7 housewife	55 Gloucester
Tarbox Elizabeth-t	7 student	21 "
Tarbox Harold	7 longshoreman 50 "
Stone Frank	7 retired	71 Missouri
Stone Lydia A-	7 at home	79 83 Village
Danford Alice-	7 waitress	35 1573 Wash'n
Danford Patrick	7 maintenance 34 1573 "
Kerr Lillian-	7 waitress	31 30 Hanson
Farage Kalil	7 clerk	66 22 Genesee
Newton Charles	7 chauffeur	25 Newton
Newton Grace M-	7 housewife	42 60 Dover
Matta Frederick	7 clerk	56 9 Gloucester pl
Ash Alfred	11 stevedore	22 here
Ash Marie-	11 housewife	22 25 Bainbridge
Frazer Celia-	11 waitress	59 here
Smith Arlene-	11 cleaner	43 "
11143
Smith Harry	11 mechanic	54 "
*Berman Abraham	11 merchant	70 "
79
