e -	-,,,	Reported Residenc
 :	FULL NAME. :	oId	co' .
o o	Jan. 1, 1949.
ci	.,'	a) .,r3
Occupation.
-C3 =	a nn 	
524.	F?.
c3	0
:.i	14 	C)	Street and Numbe
Chambers Street
z Weener Joseph	7 dentist	45 here
6032
A Rydstrom Anna-	7 housewife	53 "
B	Soder Esther-	7 factorywkr	55 "
c Tibert Alphonse	7 molder	63 "
D	Graham Minnie-	7 housewife	60 "
E	Moscaritolo Mary-	7 factorywkr 50 "
F Conkey John	7 clerk	30 "
G	Shumansky Michael	7 laborer	52 "
H	Gilmartin Edward	9 physician	44 "
K	Gilmartin Eileen-t	9 nurse	42 "
L	Eaton Freeman	9 accountant 41 "
M Eaton Sadie-	9 nurse	39 "
N	Wilson Winifred G--	9 "	32 "
o	Swanson Jane-	9 ii	31 "
P	Swanson William	9 physician	32 "
R Dunbar Jessie-	9 clerk	29 "
s Eubanks Fae-	9 it	29 "
T Kalner David	9 student	27 "
IT Peete William	9 clerk	40 "
/	Ahern James	11 chauffeur	27 "
w Betley Joseph	11 "	30 "
x Blanish Louis	11 laborer	56 "
Y *Devlin John	11 maintenance 48 "
z Graham John	11 porter	54 "
6033
A Hahn Edward	11 student	27 "
B	Hearan Henry	11 retired	67 17 Staniford
c Hwedziewicz Andrew	11 porter	58 48 Auburn
D	McDonald Joseph	11 cook	30 here
E	McKenna William	11 millwkr	36 20 Hancock
F Peak George	11 painter	64 4 Bulfinch ply
G	Peak Jenny-f	11 housewife	60 12 S Russell
H	Ray Anthony	11 clerk	35 here
R Sellars Eugene	11 porter	52 "
L	Smith Thomas	11 manager	35 "
M Stopa Felix	11 packer	29 "
N	Costello John P	13 mortician	65 "
o	Keyes Charles	13 clerk	63 "
P	Tolson Dorothy-	15 waitress	40 "
R Tolson Edward	15 student	21 "
20
