6	Reported Residence,
k4	FELL NAME. 	'--cj
0 . ^I,
"CI CI (,)
.'' OS 1^1	Occupation.	2 6
0 bi) 	
-!C	Jan. 1, 1949.
4'-'	2	Street and Number.
Brighton StreetContinued
ir Rosato Mary-f	126A housewife	35 here
c Seaboyer Max	127 maintenance 62 "
c Seaboyer Nancy-f	127 housewife	49 "
z Aitken Helen E-1-	127 clerk	41	"
7027
Burke Rose-	127 housekeeper 40 16 Chamblet
3 Sherran Joseph	127 manager	59 here
Teichman Patricia-	127 housewife	21 5 Guernsey
D	Teichman Richard A, jr 127 student	23 5 "
E	McDonald Mary-	127 nurse	59 here
F Erpert Dora-	127 clerk	40 "
3 O'Hare Dorothy-f	127 "	30 Quincy
K	Funing Frederick	128 maintenance 48 148 Leverett
L	Joltki Michael	128 "	23 here
VI Kuziuk Apolonio H--	128 housewife	49 "
g	Kuziuk Bernard	128 cutter	51. "
o	Hotz Philip	128 clerk	27	"
P	Melnok Arthur	128 maintenance 54 "
Et Zenga Henry	128 laborer	25 "
s Zenga Margaret-	128 housewife	25 "
T Kamenski Frank	128 maintenance 60 "
ET Seccareccio Andrew A	128 "	45 "
/	Seccareccio Mary-	128 housewife	39 "
/	Johnson John H	130 maintenance 55 "
K	Lougee Ruth-	130 housekeeper 47 "
Y DiTullio Archibald	130 maintenance 60 "
z Mauriello Angelo V	130 clerk	36 "
7028
. Mauriello Mary-	130 housewife	37 "
3 Simmons Irene-	130 clerk	52 "
-.; Simmons Ralph	130 "	53 "
) Madden Catherine-	130 housewife	79 "
Madden Patrick	130 retired	69 "
F DiPrizio Edith-	130 housekeeper 44 "
4 Race Florence-	130 clerk	49 "
1 Race Merrill	130 cutter	48 "
eAntonawicz Anne-	132 housewife	77 "
L	Dougherty Daniel W	132 clerk	25 "
1 Dougherty Mildred T----t 132 housewife	27	"
J Kucheruk Alice-	132 clerk	44 "
) Kucheruk Mary-	132 "	24 "
3-7	17
