-	-ri	Reported Reside
c; 
;.- --^ d 	0 a.	Jan. 1, 1949
CD . ^0 =
FULL NAME.	"CI 0	Occupation.	a GL
ta	-.D	.;+! . g- s *	a'
ad	d>	Z
14	CI)	Street and Nun,
Prince StreetContinued
P LaFerrara Angelina-	136 shoewkr	22 here
R*LaFerrara Anna-	136 housewife	63 "
s LaFerrara Carmen	136 chauffeur	-27 "
T LaFerrara Eleanor-1	136 stitcher	21	"
u	LaFerrara Rocco	136 laborer	33 4 Decatur
v Lepore Amando	136 merchant	43 here
w Lepore Josephine-	136 housewife	37 "
x Giaimo Frank	136 waiter	6 "
y Giaimo Madeline-	136 housewife	23 "
z Cataldo Joseph	136 electrician	50 "
4097
A Ferullo Anthony	136 shipfitter	30 "
B	Ferullo Assunta-	136 housewife	60 "
c Catalano Antonio	136 laborer	58 "
D	Catalano Medico	136 packer	22 "
E	Catalano Pasqualina- 136 housewife	61 "
G	Flammia Antonettaj	138 "	56 "
H	Flammia Phillip	138 laborer	58 "
lc Plagenza Eva-'	138 housewife	23 "
L	Plagenza Leonard	138 shipper	23 "
M Regolino Frances-	138 housewife	32 "
N	Regolino Nicholas	138 chauffeur	36 "
o	Froio Isabella-	138 housewife	38 "
P	Froio Joseph	138 shoewkr	37 "
R Pantone Anna-	138 housewife	27 "
s Pantone Guy	138 cutter	25 "
T Cavallo Antonette-	138 housewife	30 "
u	Cavallo Joseph	138 merchant	32 "
/	Sclafani Accurzia-	138 finisher	22	"
w Sclafani Anthony	138 presser	26 "
x*Sclafani Maria-	138 housewife	57 "
y DiVitto Sabatina-	138 stitcher	30 "
z Iovanni Assunta-	138 housewife	57 "
4098
A Iovanni Carlo	138 mechanic	56. "
B	Iovanni Frederick	138 clerk	28 "
c Bottari Carmella-	138 dressmkr	21 "
D	Bottari Frank	138 student	23 "
E	Bottari Joseph	138 laborer	62 "
F Bottari Josephine-4	138 housewife	56 "
G	Bottari Leo J	138 carpenter	27 "
52
