6 _	a) C$	Reported Reside
c, 
0 ^16	18 6	Jan. 1, 1949.
cp
	 	Furs.Furs.M	"O NAE.	0 g 0  Lep
Occupation.	a be 	
..D
	be	..	32 ca.-1	o.-tC
	Q,	a.) 	Street and Numl
	ta,	^-4	may	cn
Cleveland PlaceContinued
o	Trovato Joseph	6-8 laborer	37 here
P	Trovato Mary-	6-8 housewife	38 "
R Giorlando Michael	6-8 laborer	35 "
s*Giorlando Salvatore	6-8 retired	62 "
T Giorlando Santa-	6-8 housewife	61 "
u	Giorlando Sebastino	6-8 shipper	23 "
/	Rago Nicholas	6-8 operator	40 "
w Rago Theresa-	6-8 housewife	36 "
x Giovanelli Jennie-	6-8 stitcher	29 "
Y Giovanelli Joseph	6-8 laborer	60 "
z Giovanelli Phillip	6-8	"	23	"
3006
A Giovanelli Phyllis-	6-8 housewife	58 "
B	Zizza -Josephine-	14 "	40 "
c Zizza Michael	14 machinist	48 "
D	Comperchio Joseph	14 laborer	20 "
E	Comperchio Josephine- 14 housewife	41 "
F Comperchio Vito	14 operator	45 "
G	Comperchio Adeline-	14 "	23 "
H Comperchio Alfonsina- 14 housewife	65 "
K	Comperchio Louise-	14 clerk	21 "
L	Comperchio Michael	14 laborer	25 "
M Comperchio Rita-	14 stitcher	30 "
P	Gisso Michael	15 maintenance 50 10 Margarel
R Gisso Pauline-	15 housewife	38 10 "
s Guariello Antonetta-	15 stitcher	27 here
T Guariello Malina-	15 housewife	61 "
u	Guariello Nicholas	15 operator	42 "
/	Steriti Lucia-	16 housewife	42 "
w Steriti Peter	16 laborer	41	"
x Naimo Josephine-t	16 housewife	58 844 Canter]:
Y Imperato Antonetta-	16 "	33 here
z Naimo Dominic	16 laborer	41 "
3007
A Naimo Nora-	16 housewife	40 "
D	DeMinico Carmine	17 cleaner	57 "
E	DeMinico Mary-	17 stitcher	36 "
F Donatello Joseph	17 retired	60 "
G	Donatello Pasquale	17 "	60 "
H	Comperchio Anna-	17 housewife	25 "
K	Comperchio Sterlino	17 laborer	27 "
4
4
