-.J	Reported Residence,
	.	='; 7 g	c)4 6	Jan. 1, 1949.
a;	..,	Ft:m... NAME.
:	^	L,_
e G -)	Occupation.	o ho 	
7 z-.*:
	I 1	c _- : ,	1	Street and Number.
Lucas StreetContinued
s Melo Jerome S	19 baker	44 here
T Melo Josephine T-	19 housewife	35 "
u*Sanders Marta-	19 cook	68 "
/	Lapchis Arthur	19 chef	54 "
w Lapchis Jennie-	19 housewife	50 "
10102	May Place
P	Holland William B	1 laborer	61 here
R Powers Annie F--	1 at home	67 "
s Senecal Althea-	2 housewife	40 "
T Senecal Wilford	2 draftsman	38 "
u	Mahoney Cornelius	3 retired	68 "
/	Nackley Philip	3 clerk	26 "
w Terrell Nettie-	3 housewife	45 "
x Aksel hj elm Olga H-	4 supervisor	43 "
Mayo Street
Y Hardy Wellington	13 porter	60 here
10103
A Gibbs Vina-	13 housewife	52 "
B	Gibbs Walter	13 janitor	54 "
D	Ciampa Louis	13 laborer	55 "
F Pinkowski Joseph	13 cook	33 "
G	Pinkowski Loretta-	13 stitcher	28 "
H*Pinkowski Tina-	13 at home	71 "
K	Pinkowski Walter	13 laborer	69 "
M Jones Essie-	21 domestic	43 1 Briggs pl
N	Murray Estella-	21 housewife	24 1 "
o	Tyler Constance-	21 domestic	40 here
P	Tyler Mildred-	21 "	52 2A Acton
R Woodson Charles	21 laborer	25 here
s Woodson Leola-	21 housewife	23 "
T Smith Henry	21 laborer	52 "
u	Smith Rachel-	21 housewife	55 "
/	Hollis Alice-	21	"	35	"
w Hollis James	21 laborer	44 "
x Thomas Frank	21 "	48 "
Y Thomas Octavia-	21 housewife	33 "
z Evans Clayton	21 laborer	30 "
48
