a) 0 C5	Reported Residence,
	;:	g-7,6	-.J	Jan. 1, 1949.
6	!;	Fula, NAME.	1:,  Le,
Occupation.	al 'C ' & , 06
ti	,2 CS .-1	C..' ''
CI	C.)
	44 14	4	CZ	Street and Number.
Boylston StreetContinued
Y Freeman Walter	17-21 stagehand	54 here
z Goldie John	17-21 entertainer	64 "
10016
A Goldie Lillian-	17-21	"	79 "
B	Gregoire Effie-f	17-21 nurse	48 "
c Gregoire Wilfred	17-21 electrician	45	"
D	Leonardi Arthur A	17-21 manager	48 "
E	Leonardi William B	17-21 proprietor	56 "
F Marotta Ralph C	17-21 clerk	60 "
G	Mitchell Edith-4	17-21 saleswoman 54 "
H Nolan Larry	17-21 manager	44 "
K	Spinelli Gaetano	17-21	"	65 "
Y Blaney Matilda-	62 saleswoman 35 "
z Brooks Margaret-	62 domestic	61 "
10017
A Greses Hyman	62 merchant	55 "
B	Horton Emily M-f	62 at home	75 "
c Hyde Clarence E	62 manager	63 "
D	Izaguirre Anthony	62 elevatorman 33 "
E	Kavanaugh Mary-	62 housewife	55 "
F Kavanaugh Michael J	62 manager	70 "
G	Keene Margaret-	62 domestic	57 "
H McDonald Catherine- 62 "	49 98 Pembroke
K	McErlain Celia-	62 "	52 here
L	McLaughlin Mary-	62 "	60 "
ivi Powers Agnes-	62 "	51 "
N	Quinn William	62 houseman	57 "
o	Regan Ann- 	62 domestic	61 "
P	Sanger Eugene	62 jeweler	85 "
R Silver William	62 houseman	31 Nahant
s Stewart Walker R	62 manager	43 here
T Walsh Anna-	62 domestic	66 "
u	Walsh Jane-	62 secretary	21 47 Hunt'n av
/	Walsh Thomas J	62 manager	56 47 "
Broadway
Y Sullivan Bessie-	166 housewife	65 here
z Sullivan Wesley	166 splicer	35 "
10018
A Kachinsky Anna-	166 housekeeper 70 "
8
