6	-o	Reported Residence,
4	a) 0	o 0
0
0 -^ 	aa' 	Jan. 1, 1949.
0.)	FELL NAME.	-	:0 2	Occupation.	0 %.4 	
..'	r ra' cd 1-1	2 `
4'	Street and Number.
.q 
Union Park StreetContinued
1, Fagen Grace A-	68-74 teacher	38 19 St Joseph
it Flavell Paulyle-	68-74 "	54 here
g	Fraher Alice C-	68-74 "	40 Arlington
o	Hartford Helen E- 68-74 "	36 here
P	Horrigan Clara F-t	68-74 "	45 Lynn
R Joyce Florence E-	68-74 "	51 here
s Klocker Alice L-	68-74 "	54 "
T Long Catherine G- 68-74 "	57 "
u	McCormack Mary T- 68-74 laundress	36 "
/	McGarry Catherine C- 68-74 teacher	34 "
AT McGovern Veronica M-	68-74	"	46	"
K	McSorley Mary E- 68-74 "	38 "
Y Minahan Mary A-t 68-74 "	54 "
z Murphy Marion B-t 68-74 "	58
12115
A. Murphy Mary E-t	68-74 "	53 "
B	O'Connor Dora E- 68-74 "	43 "
C O'Gorman Margaret A-	68-74	"	60	"
D	O'Hare Mary E-	68-74 "	32 "
E	Ryan Mary J-t	68-74 "	34 "
F Saulenas Victoria M- 68-74 "	38 "
Gr' Schreiner Anna M- 68-74 "	60 "
El Tomei Louise M-	68-74 "	39 "
K	Toomey Margaret L- 68-74 "	44 "
L	Wilkie Katherine C- 68-74 "	46 "
a Gallant George W	102 salesman	52 15 Rollins
/	Gallant Mary A-t	102 housewife	75 here
D	Lefty Abraham	102 tailor	51 "
P	Lefty Agnes-	102 housewife	49 Springfield
B	Deady Catherine-	102 "	41 here
s Deady John	102 , laborer	44 "
/	McGee Eleanor-	102 stitcher	21 103 Union Park
J	Lentz Catherine-	104 housewife	26 here
/	Lentz Francis	104 fireman	32 "
/	Daley Florence-	104 stenographer 24 "
K	Daley Mary V-t	104 nurse	58 "
Y Daley William	104 clerk	30 "
z Hurley John	104 laborer	38 "
12116
A. Hurley Mary-	104 housewife	36 "
B Pezzini Alice-	106 stitcher	55	"
67
