r		t::,	FULL NAME.	6
 .
co--f 6
Occupation.	0	Jan. 1, 1949.
o  14
'CI 0 C)	^c
2 6
:_ tc 	Reported Residenc(
;	h	:-'	-7. cd,^	Z`
	vs	Ei	cp-:	i-5	Street and Number
	,...	^4
Hancock StreetContinued
K	Fisher Emma-	12 housewife	66 here	.
L Jacobsen Robert A	12 machinist	23 Avon
m Jacobsen Tela W-1	12 housewife	33 Kentucky
N	Kaiser Samuel	12 leatherwkr	38 here
o	Kuzmarski Charles S	12 U S N	31 Virginia
P	Kuzmarski Roberta A-4 12 housewife	28 "
R MacKenzie Allen N	12 clerk	48 29 Bowdoin
s Murphy John	12 retired	70 5 Hancock
T Ralph Mary T-	12 cook	54 here
u	Ralph Ward AI	12 carpenter	62 "
/	Sargent Lillian-1	12 operator	38 New York
w Shields Harry F	12 attendant	39 Concord
x Carter Bernard	13 guard	32 here
Y Carter Frances-	13 housekeeper 64 "
z Lynch Mary T-	13 housewife	30 "
8022
A Lynch Robert A	13 supt	34 "
B	Sutherland Jessie-	13 nurse	47 "
c Hunt Susan A-	14 at home	83 "
D	Husband Ada A-4	14 waitress	73 "
E	Batchelder Sally E-	14 secretary	61	"
F Brown Emily G-1	14 "	65 "
G	Shapiro Charles	14 storekeeper 63 "
H	Shapiro Gladys-	14 attorney	34 "
K	Shapiro Sadie-	14 housewife	65 "
L	Boles Doris-	14 saleswoman 22 6 Chestnut
m Duncan Dorothy-1	14 clerk	22 6 "
N	Friedman Jacob S	14 retired	68 here
o	Friedman Pauline-	14 saleswoman 61 "
P	Linehan Gertrude M-	14 mortician	58 "
R Bourden Arthur	14 retired	72 "
s Bourden Ethel-	14 secretary	28 "
T Malley Anthony	14 salesman	68 "
u	Malley Virginia-4	14 beautician	58 "
/	Haggerty Elizabeth-	14 housewife	72 "
w Haggerty John	14 operator	64 "
x Bentley Serena R-	14 clerk	52 "
Y Kemick Elizabeth-4	14 at home	74 "
z Anderson Louise M-	15 waitress	56 "
8023
A Burke Patrick W	15 laborer	47 Somerville
13
