Reported Residence,
v	0
z,Ic;	O' 6	Jan. 1, 1949.
g:	(i) . kr,.	Occupation.	c..
FULL NAME.	"e C '' 
...°
w	Street and Number.
Allen StreetContinued
E	Kaminsky Bessie-	53 housewife	51 here
F Kaminsky Harry	53 merchant	54 "
G	DiGregorio Frank	53 artist	39 "
H	DiGregorio Nancy-	53 housewife	33 "
lc Trott Charles	55 student	21 220 Newbury
L	Trott Madeline-	55 housewife	26 40 Hereford
M Mahoney Theresa-	55 nurse	23 8 Blossom
N	Perry Dorothy-I	55 "	23 8 "
o	Caruso Carlo	55 druggist	65 here
P	Caruso Isabella-	55 housewife	62 "
R Haggerty Madeline-	55 nurse	21 17 Parkman
s Holland Rose-	55 "	26 17 "
T Bratt Sadie-f	55 maid	45 here
u	Cefalo Joseph	55 salesman	37 "
/	Cefalo Katherine J-	55 housewife	33 "
w Osborne Harry W	55 factorywkr 27 "
x, Osborne Nena-	55 housewife	26 "
Y Marcotullio Dominic	55 fishcutter	35 "
z Marcotullio Santa-4	55 housewife	32 "
6024
A Fisher Louis	551 laborer	63 "
B	Gray Albert	551 mechanic	23 "
c Gray Eva-t	551 housewife	44 "
D	Gray Maurice	551 plumber	53 "
E	Bordun Stephanie-	551 housewife	31 "
F Bordun William G	551 clerk	39 "
G	Kaspar Anna-	551 housewife	55 "
H	Kaspar Robert	551 letter carrier 32 "
K	Carroll John	61 laborer	37 "
L	Carroll Ruth-	61 housewife	35 "
'm Lanigan Bridget-	61	"	69 "
N	Lanigan John	61 merchant	67 "
o	Lanigan Robert	61 electrician	29 "
P	Porcello Albert	61 chauffeur	45	"
R *Porcello Claudia-	61 housewife	41	"
s Porcello John	61 chauffeur	22 "
Barton Court
T Economes James	6 cook	58 here
u*Sidorowich Sophia-	6 housewife	57 "
/	Danowitch William T	6 laborer	54 "
15
1
