6 -	-0	Reported Residence,
 u:	o  d	aS .
o o	Jan. 1, 1949.
0
....,	FULL NAME.	t3) .
1::) g a .r,
,	Occupation.	a ba 	
ol a3,-1	sa.<4
:.,
-	r	)'	Street and Number.
Foster StreetContinued
H	Vaccaro Anna-	3 housewife	35 here
K*Vaccaro Anthony	3 laborer	47 "
L	Constantino Anna-	3 housewife	37 "
M Constantino Concetta-t	3 clerk	22 "
N	Mills Helen D-	4 housewife	30 "
o	Mills Rex E,	4 mechanic	30 "
R Copovics Mary-t	4 housewife	30 Somerville
s Copovics Peter	4 clerk	28 "
T Cardalisco Anthony J	6 "	36 here
u	Cardalisco Crescenzio	6 candymkr	61 "
/	Cardalisco Pasquale	6 laborer	31	"
w Cardalisco Vera-	6 housewife	24 "
x Costa Carmella-	6 "	34 "
Y Costa Michael	6 fisherman	35 "
z Bello Carmino	11 laborer	61	"
2041
B	Giampaolo Orlando	11 chauffeur	50 "
c Giampaolo Rose-	11 housewife	43 "
E	Lanza Carmen	11 buyer	30 "
F Lanza Frances-	11 housewife	28 "
G	Lanza Patrick	11 cutter	35 "
H	Legero Concetta-	11 housewife	60 15 Clark
K	Legero Louis	11 shipfitter	34 15 "
L	Legero Raffaelo	11 mechanic	33 15 "
m*Troisi Angelo	11 laborer	71 here
N	Scalfini Mary-	12 housewife	23 14 North sq
o*Scalfini Michael	12 laborer	64 14 "
P*Scalfini Pauline-	12 housewife	54 14 "
R Rigardi John	12 retired	75 here
s Ricciardone Joseph	12 U S A	37 "
T Ricciardone Yolanda-	12 housewife	23 "
u	Denisi Carmella-	12 "	48 "
/	Denisi Victoria-	12 stitcher	20	"
w Palomba Marie-	12 housewife	30 "
x Palomba Richard	12 baker	32 "
Y Dantone Dominic	12 clerk	41 "
z DiBenedetto Elena-	12 housewife	39 "
2042
A DiBenedetto John	12 mechanic	38 "
B	DiBenedetto Anna-t	12 packer	20 "
c*DiBenedetto Maria-t	12 housewife	55 "
23
