	_
iz	Reported Residence,
c, ..
6	FULL NAME.	0 r',6
0 .
1:1 G,0	Occupation.	co4) 
,
0 bk 0
a 	Jan. 1, 1949.
OD	.N.	"8 43 -	ca..4
ci	N4 a.)	c44)	Street and Number.
on
Hanover StreetContinued
u Buttiglieri Rosalie-	400 housekeeper 68 here
v*Bonanno Concetta-	400 housewife	98 "
w Bonanno Concetta-	400 candymkr	58 "
x Bonanno Joseph	400 "	65 "
Y Palermo Maria-	400 housewife	53 "
z Palermo Salvatore	400 retired	62 "
1081
A Palermo Thomas	400 baker	23 "
B	Eliseo Constance-1	400 housewife	34 "
c Eliseo Joseph	400 mechanic	35 "
D	Simili Antonetta-	400 stitcher	48 "
E	DiCorrado Antonio	400 jeweler	69 "
F * D i C o r r a d o Salvatrica- 400 housewife	60 "
K	Zuccala Joseph	406 retired	77 "
L	Zuccala Lena-	406 stitcher	29 "
M Zuccala Rose-	406 housewife	70 "
N	Turco Catherine-	406 candymkr	45 "
o	Turco Joseph	406 clerk	21 "
P	Ranno Alexander	406 laborer	65 "
R Ranno Concetta-f	406 housewife	66 "
s Ranno Concetta-	406 stitcher	49 "
T Aleo Angelina-	406 "	38 "
u	Aleo Marie-	406 "	20 "
/	Turco Rosario	406 candymkr	52 "
x*Rotondi Peter	rear 406 retired	65 "
Y Migliozzi Clamente " 406 shoemkr	60 "
z Migliozzi Nicholas	" 406 laborer	25	"
1082
B	Belmonte Angelo	408 presser	36 "
c Belmonte Jennie-t	408 housewife	37 "
D	DiTavie Fanny-t	408 stitcher	62 "
E	Grufo Carman	408 pressman	50 "
F Grufo Frances-	408 housewife	45 "
G	Serrecchia Arthur	408 merchant	28 "
H	Serrecchia Evelina-t	408 housewife	62 "
K	Serrecchia John	408 merchant	26 "
L	Serrecchia Joseph	408 retired	67 "
	M Serrecchia Mario	408 clerk	20 "
N	LaMarca Caroline-4	408 housewife	64 "
o	LaMarca Guy	408 clerk	33 "
P * L a M a r c a Loretta-t	408 housewife	86 "
3-1	33
