O -	--J
0	Reported Residence,
4	c --,d	2 .	Jan. 1, 1949.
6 4;	FULL NAME.	li 0 .,
ct	Occupation.	5,' gi 	
C f	.6a	. Et. a3...	a-.<4
	CD	6) ID
a-i	14	mt,
..c	CZ	Street and Number.
Hanover StreetContinued
G	Marsoline Charles	r 206 bartender	45 here
H*Marsoline Grace-	" 206 housewife	75 "
K	Marsoline John	" 206 cobbler	54 "
L	Locchi Jerome	" 206 machinist	54 "
M Locchi Mary-	" 206 housewife	47 "
N	Peracchi Marie-	" 206 "	63 "
o	Cassasa Louisa-4	" 206 "	56 "
P*Dionisio Giacinta-	" 206 "	44 "
it Dionisio John	" 206 shipper	53 "
s Filipinio Albert	" 206 waiter	45 "
T Romano Ernest	208 florist	53 "
u	Romano Rose-	208 housewife	43 "
/	D'Ambrozio Elizabeth- 208 "	37 "
w D'Ambrozio Nicholas	208 leatherwkr	39 "
x Ferrara Anna-1	208 housekeeper 61 "
Y Ferrara Filomene-1	208 candymkr	63 "
z Ferrara Romano	208 salesman	60 "
3023
A Isola Frederick	208 merchant	52 "
B	Isola Robert F	208 clerk	44 "
E	DiMeo Angelo	213 tailor	31 "
F DiMeo Louise-	213 housewife	30 "
H Polcari Anna-	213 "	44 "
K	Polcari Anthony	213 cutter	42 '
L	Peracchi Guido	213 bartender	42 "
M Peracchi Rose-	213 housewife	36 "
u	Romano Emma--4	220 "	72 "
/	Romano Savario	220 attorney	75 "
w Rueca Alfred	220 shipper	55 "
x Cianci Corinne-	220 housewife	39 "
Y Romano Angelia-4	220 "	28 "
z Sorrentino Anthony	220 laborer	30 "
3024
A Alunni Assunta-f	220 housewife	30 "
B	Alunni Donald	220 welder	33 "
c Gennazzi Josephine-	220 housewife	33 "
D	Gennazzi Salvatore	220 painter	34 "
E	Simone Frederick	220 taxi driver	30 "
F Simone Yolanda---	220 housewife	27 "
G	Benincasa Margaret-	220 "	58 "
H	Dellolacono Rose-	220 "	56 "
12
