-	-.	Reported Residence,
0
oic;	02°) 	Jan. 1, 1949.
,;')	FU	a.) 9
LL NAME.	 i0	Occupation.	o ca
1	r ,-9
cl.ba 	
"12 	o.-.4
. 
cE	Street and Number.
10047
Essex Street
E	Ott Isadore	25-27 merchant	55 here
10048	Garland Street
T Powers Gertrude-1	1 housewife	56 364 Harrison aN
u	Powers Robert J	1 clerk	59 364 "
/	Hutchinson Ruth-	1 waitress	50 here
w Moran Adeline-i"	1 bookkeeper 43 "
x Moran Mary-t	1 at home	75 "
Y Hollis Margaret-	1 operator	66 "
z Callahan Helen--	1 stitcher	43	"
10049
A Callahan Sarah-	1 housewife	62 "
B	Webster William	1 laborer	27 "
c Stone Mary-4	1 housewife	65 "
D	Stone Peter	1 carpenter	65 "
E	Harrington Timothy	1 seaman	47 27 Compton
F Bonnell Eugene	2 laborer	46 55 Dover
G	Gallagher Leo	2 cook	52 here
H Huicinga William	2 retired	74 "
K Hurley John P	2 laborer	42 "
L	Maloof Richard	2 bartender	51 "
M Moore Charles	2 laborer	47 "
N	Smidek Anthony	2 roofer	58 Springfield
o	Turner Arthur F	2 fireman	54 here
P	Turner Ivy A-4	2 housewife	46 "
R Whittemore John C	2 laborer	55 "
s Boyle Hugh	4 "	50 34 Milford
T Fanelli Dante	4 cook	56 here
u	Gaglio Michael	4 laborer	62 "
/	Perfetti Pellegrina-	4 housekeeper 53 "
w Scaramuzzo Rocco	4 stitcher	58 "
x Stein Joseph 	4 retired	72 "
Y Baker Foster	6 laborer	28 440 Newbury
z Galvin Anna F-4	6 at home	81 here
10050
A Hilton Melvin R	6 retired	75 "
B	Hurley Beatrice-4	6 housekeeper 58 "
c *Johnson Peter	6 laborer	70 "
D	McKeever George	6 retired	74 "
24
