1	Rep.--krte,i Rea 
1- -- -	r :	Jan_ I_ 1949.
...=	z.-...	- -
_	Street sal Nuant
Unit\ Strut
c Dil3enedetto _-Ve.,.)stino	6 chauffeur	40 here
D	DiBenedetto A-irzinia-1	6 packer	37 '
I: TOS:1110 Celeste--	6 factorywkr	55	-;
F T..-,::-___:. ai.:_-_-__enieo	6	-	56
G	T..- ..--	. ' - ...-- - .	6	-	69	**
H AL_ _ :.::: :,'__-= Cf:::	6	shipper	.1.)	....:
O-
K MacearoL--: S-_:.--au-i.	6 housewife	99	...
L	A: ±si Do-_-_-_-_-_1 -	6 operator	61
'.,--_-'',.:1-:_ There:-..--	6 housewife	.36
N	oisi Victor	6 stitcher	99	.^
--
o	Paterna Die_:-..--	8 finisher	-o	.;
a_
P	Paterna Mary-7	8 operator	99 ..^
--
P. Paterna Salvatore	8 retired	64
s Marazioglio Leonarda-t	8 finisher	-,	-
-3-)
T Messina 12-rippina-	8 at home	66
v Petralia \-incenzo	8 laborer	o9
w Petralia Virzinia-÷	8 housewife	--),=,
_ J
x Kennedy Glenn	8 cook	21 -1- Kennedy Mari -÷	8 housewife	.-)--,
_o
z Laf:Auci AL0:1-Lony	8 presser	46
1166
A*Sarnmaritana Francesca-t 8 at home	60
B	DiCicco Marv-+	10 housewife	59
c DiCicco Nich:olas	10 shoewkr	61
D	DiCicco Grace-t	10 stitcher	3.3
F_*DelCoco Marco	10 laborer	6.5
/	Toscano E :::-__-F	10 housewife	38	'
r_.:. Guiliano J -_,-oh	10 stitcher	35
H	Guiliano Rose-t	10 housewife	32 '
K	Iacozzi Coneetta-'	10 "	40 "
L	Perazzo Dominic	10 laborer	68 "
m Persico Serfinio	10 -	61	"
N	Grazioso .Johr_	19	-	58 "
o*Grazio-so N.' ---- r-:,---------'	12 housewife	44	"
P	Payne Josephine-7	1')	"'	32 "
P. Payne Warren	12 operator	42 4
T Pucci Frank	12 laborer	35 "
/	Pucci Alicheline-'r	12 housewife	3.5	"
/	Van_nelli Xngelo	12 laborer	68 "
w Vanne1:: Sarah-4.	12 housewife	66 "
x Rago Frank	12 merchant	41 "
