eReported Residence
,6
2 7	0 -ti -.' 	Jan. 1, 1949.
0) . uz	0 el)
Occupation.	cy bt 	 '
Furl, NAME.  	:73 ° C5
Fa' al ,  i	P.
'-'
Cia	Street and Number.
12140
Waltham StreetContinued
A Maguire Mary H-	77 at home	69 171 Warren av
B	McCarthy Charles	77 retired	58 Maine
c McCarthy Justin	77 "	59 "
D	McCarthy Pauline-	77 at home	52 114 Pembroke
E	McDonald Mary J-I	77 housekeeper 53 here
F McKenna Bernard	77 roofer	49 "
G	Vallin Stanley	77 cutter	53 "
H	Williamson Harry	77 retired	72 "
lc Woodlock Anna-	77 at home	75 "
L	Ellis Frank	78 mechanic	25 "
M Gabriel Rose-	78 waitress	25 "
N	Pires liucy-1	78 "	23 Watertown
o	Pires William	78 laborer	27 "
P	Winkles Frank	78 cook	35 here
R Zines Delia-	78 dressmkr	41 "
s Zines Harry	78 carpenter	44 "
T Zines Marion-	78 housekeeper 30 "
u	Zines Mary-	78 dressmkr	38 "
v*Zines Rose-	78 housewife	69 "
w*Zines Torey-	78 retired	73 "
x Zines William	78 chauffeur	47 "
Y Dravis Mary-	79 at home	71 "
z Maloof Jamily-	79 housewife	65 "
12141
A Maloof Kalil	79 retired	65 "
B	Nolan Johanna-	79 housewife	45 "
c Nolan Michael K	79 shoemkr	43 "
D	Bagdiorine Charles	80 clerk	55 "
E	Barsomian Paul	80 shoewkr	51 "
F Burke James	80 laborer	50 "
G	Coleman Ellen J-	80 housekeeper 60 "
H	DeLeon Flores	80 operator	48 "
x Gilmartin John	80 retired	70 "
L*Hayman Christy	80 housekeeper 68 "
M Price Mary-	80 clerk	60 Chelsea
N	Simmons Rose-	80 at home	81 here
o	Sughrus Dennis	80 cutter	69 "
P*Sullivan Nellie-	80 at home	71 "
R Tkijian Karkan	80 retired	70 27 Hanson
s White Robert	80 "	67 here
82
