6'V	Reported Residence,
Q
0 1 6	2	Jan. 1, 1949.
F	CI ULL NAME.	CD . xf,
" 0 CI	Occupation.	o 0
bo 	
. 
TO' C 3 ^  1 
5	r	t	Street and Number.
Harrison AvenueContinued
Baniewich John	517 clerk	25 here
Brown Hazel-	519 housewife	29 "
Brown John	519 laborer	33 "
Melios Mary-1	519 clerk	53 "
Puccini Aldo	519 presser	25 "
Puccini Emilio	519 "	53 "
Puccini Theresa-	519 housewife	53 "
Campbell Daniel	521 retired	75 "
Kowalski Mary-	521 secretary	31 "
Regan Ann-I	521 housewife	26 "
Regan George K	521 coppersmith 32 21 Nonquit
Bedia Leo	521 cook	56 here
Bedia Leo, jr	521 clerk	20	"	.
Bedia Louise-I	521 housewife	56 "
110%	Laconia Street
Anastalis Demethros	7 counterman 59 here
Anastalis Photios	7 retired	78	"
Samargedlis Anna-	7 cashier	21 "
Samargedlis Bessie-1	7 housewife	47 "
Samargedlis Leftis	7 retired	57	"
Samargedlis Mary-	7 stitcher	26 "
Kalos Angelina-	7 it	23	"
Kalos Christos	7 painter	35 "
Dudley Eva-1	7 at home	73 "
Pitchett Marie-I	7 cleaner	55 "
Bithoney Edward	9 chauffeur	58 "
Bithoney Ethel-	9 beautician	31 "
Bithoney George	9 technician	29 "
Bithoney Louise-I	9 housewife	28 "
'Bithoney Mary-	9 ii	49 "
'Bithoney Howship	11 laborer	65 "
Bithoney Rachael-	11 housewife	65 "	
Lawrence Alice-	11 stitcher	48 "
Shire Deeb	11 clerk	20 "
Shire Mary-	11 stitcher	32 "
Buchanan Mary-	11 at home	80 "	'
Rose John	11 fireman	45 "
Rose Mary-	11 waitress	38 "
53
