e -	-0	Reported Residence,
ic;	09 	Jan. 1, 1949.
s.:	0  L	0 a )
0	FULL NAME.	5 °0,	Occupation.	a bo
.-*'	-c	,-,
 4	r	ia.-4
c2	Street and Number.
Chambers StreetContinued
c Maraldo Oswaldo	135 painter	43 here
D *Krupenick Benjamin	135 retired	70 "
E	Krupenick Ida-	135 housewife	54 "
F Marchuk Stephen	135 retired	71 "
G	Kaplan Harold	135 clerk	28 "
H	Kaplan Mary-	135 housewife	59 "
x Kaplan Simon	135 framemkr	65 "
NI Ranno Domenic	137 salesman	21 "
N	Ranno Dorothy-	137 housewife	20 Framingham
o	Amero Phillip	137 operator	21 Somerville
P	Pinto John	137 baker	52 here
R Pinto Paul	137 U S A	21 "
s*Pinto Rose-4	137 housewife	47 "
T Fallon Joseph	137 chauffeur	26 "
u	Steriti Anthony	137 cabinetmkr 22 "
/	Steriti Kathryn-	137 housewife	21 "
w Lisitano Catherine-	137 "	27 54 Bromley pk
x Lisitano Joseph	137 chauffeur	27 54 "
Y Fallon Josephine-	137 housewife	27 here
z Passenese Joseph	137 laborer	27 "
5052
A Passenese Mary-	137 clerk	24 "
c Zaccaria Leonard	139 ironwkr	.56 "
D	Ratkins Ann-	139 housewife	67 "
E	Bartholomew Albert	139 baker	23 "
F Bartholomew Albert W 139 painter	50 "
G	Bartholomew John	139 manager	24 "
H	Bartholomew Ruth-	139 kitchenwkr 47 "
K *Novaselitsky Michael	139 meatcutter	62 "
L	Wojeiechowski Michael 139 cook	62 "
m*Wojeiechowski Nellie- 139 housewife	60 "
N	Almeida Manuel	139 laborer	62 "
o*Pierce Bessie-j'	139 housewife	56 "
P	Pierce Gates	139 printer	57 "
R Pierce Maurice	139 stockman	23 "
s*Dombroski Joseph	139 attendant	60 "
T Talinski Charles	139 waiter	37 "
u	Talinski Mary-	139 housewife	63 "
/	Talinski Michael	139 laborer	73 "
w Chivakos Anna-	139 housewife	50 "
x Chivakos Annie T-	139 technician	25 "
29
