-*	1
-	al	^ :.-
	-o -72:
gdF	Jan. 1, 1949
Reported Residence
FELL NAME.	.=	.
o	,	- .,	OccupatiOII.
-:'
.'
,05	Ci 1	z.
-	- 1	'-.	72	Street and Number,
Chambers StreetContinued
F harden Helen H--	44 supervisor	67 here
G	Ouren Kristina-f	44 cook	70 92 W Newton
H Rowe Colleen-	44 technician	22 here
K	Siplas Mary-	44 student	34 "
L	Ferrant Lillian-1	50 housewife	45 "
Ai Ferrant Michael E	50 physician	43 "
x Willis Olive-	50 housekeeper 40 "
R Fitzpatrick Thomas	52 waiter	62 "
s Gifford Eugene	.52 laborer	50 14 Dwight
T Gifford Walter	.52 retired	80 here
u	Harrington Timothy	- )
.).	ii	66	"
/	Leonard Ruby--f	.52 housekeeper 60 "
w McKinnon Joseph	52 guard	60 "
x Mooney John	52 retired	66 "
Y Rintes John	52 laborer	60 35 Lynde
z Tompkins William	52 cook	60 69 Staniford
8010
A Toohey James	52 retired	70 here
B	Toohey Mary--	52 laundrywkr 60 "
c Steinberg Saul	54 physician	38
D	Cohen Julia-f	54 housewife	50 "
E	Cohen Max	54 salesman	58 "
F Brennan Ada-1	.54 housewife	55 "
G	Scharaf Ralph	.54 retired	87 "
H	Miller Sarah--	4 housekeeper 50 "
Chambers Street Court
K	Baker Henry	2 draftsman	32 here
L	Baker Louise-	2 housewife	31 "
At Hesse11 Edith--1	2	"	34	"
x Hesse11 Herbert N	2 chauffeur	35 "
o	Fauci Helen-	2 clerk	41 "
P	Nickerson Donald	2 chauffeur	26 "
R Nickerson Mary E-1	2 housewife	24 "
T Saunders James	3 photographer 25 Brookline
u	Sheridan Louis	3 hotel,wkr	27 "
/	Hymers Allen	3 chemicalwkr 37 "
w Hymers Mary-	3 housewife	70 "
x Nares Carroll	3 attendant	37 Florida
Y Gangemi Catherine-t	4 housewife	25 Vermont
6
