-cl	Reported Residence,
Q
o .c;-5	Jan. 1, 1949.
au
	t;	FULL NAME.	a) ° 	a Lo	Occupation.	02 a3 b0 	
 C7'
Street and Number.
Union ParkContinued
R Hawks Howard	41 factorywkr 26 94 W Dedham
s MacRae Harriet	41 housewife	65 here
T Moran Joseph	41 porter	52 "
u	Reynolds Edward	41 student	23 Auburn
/	Reynolds Mary-	41 housewife	21 "
w*Sarafeen Mansur	41 cook	67 here
x Smith Alice-	41 saleswoman 23 "
Y Walsh Thomas	41 waiter	28 "
z Washburn Mary-	41 housewife	40 "
12104
A Alba Benjamin	42 mechanic	37 "
B	Carroll Michael	42 retired	71	"
c Clark Russell	42 "	60 "
D	DeRosa Domingo	42 cook	48 "
E	Diehl Philip	42 retired	56 "
F Donoghue John	42 janitor	58 "
G	Eustace Margaret-	42 at home	80 "
H	Flanagan Theresa-	42 "	71 "
lc Kay Thomas	42 cook	55 "
L	Krysick Ali ce-	42 at home	67 "
M McDonald Elizabeth-	42 "	48 "
N	Sprague John	42 cook	42 "
o	Woj cich Gasper	42 retired	68 "
P	Chiasson Charles	43 janitor	71	"
R Crowell Minnie J-	43 at home	70 "
s Crowley Mary-	43 domestic	53 "
T Flint Grace E-	43 at home	71 68 Waltham
u	Foley Delia J-	43 "	59 11 Rutland sq
/	Fornier Roy E	43 retired	70 here
w Gerrin Josephine F-	43 at home	77 Swampscott
x Humphries George A	43 retired	80 here
Y Lee Oscar G	43 "	70 "
z Lee Regina-	43 housewife	60 "
12105
A Lydon Julia-	.	43 stitcher	67 "
B	MacCabe Selma W-t	43 at home	65 33 Cornwall
C Reardon Mary E-I	43 "	75 here
D	Thomas Frank	43 clerk	68 "
E	Weaving Rosalie-	43 at home	71 30 Union Park
F Archambault Joan-	44 housewife	39 here
G	Archambault Leo	44 bartender	55 "
61
