6Reported Residence, 09,-76	Jan. 1, 1949.
s.:	-0 o lo..,
6	.9	Fuzz NAME.	loos	Occupation.	i ti
Fs	c.)	0
-4	ce	al	Street ami Number.
Harrison Avenue	Continued
M Yee Wing Fow	205 clerk	61 here
N	Khiiala Abraham	211 inspector	44 "
o	Khiralla Evelyn-	211 housewife . 31 "
P	Gallozzi Edmund	211 stitcher	26 Somerville
R Gallozzi Mary-	211 housewife	27 213 Harrison av
u	Hanley Eugene S	213 clerk	43 here
/	Hanley Margaret M- 213 housewife	36 "
w Tawa George	213 retired	64 "
x Tawa Helen-	213 clerk	21 "
Y Tawa Wada-	213 housewife	64 "
z Zannino Filario	213 clerk	30 "
10059
A Zannino Isabel-	213 housewife	25 "
B	Gong Ark L	214 laundrywkr 29 Winthrop
c Gong Lily--	214 housewife	23 "
D	Hung W Jue	214 waiter	34 here
E	Jue Stella-	214 housewife	24 "
F Jenkins Frank	215 clerk	20 108 Sheridan
G	Rowen Anna-	215 housewife	45 225 Harrison'av
H Rowen Moses	215 painter	50 225 "
M Chin Din	218 laundrywkr 60 here
N	Hum Lew Yao	219 student	25 "
o	Lew Ching Yao-	219 housewife	27 "
P	Lew Kai Gong	219 bartender	54 "
R Lew Wey Yao	219 laundrywkr 28 "
s Voline John	219 electrician	47 "
T Voline Loretta L-	219 housewife	42 "
u	Brown John E	220 retired	64 "
/	Horne Arthur W	220 carpenter	69 2 Eisen
w Joyce Coleman	220 laborer	55 54 Appleton
x McCarty John J	220 "	32 15 Milford
Y McDonough George	220 "	54 20 Common
10060
A Musie Michael	220 ii	65 here
1'A Naughton Reginald	220 machinist	55 "
B	Shine Frank J	220 laborer	32 Canton
c Tighe Thomas	220 "	64 221 Harrison av
D	Whalen Michael	220 retired	70 189 W Third
E	Byda Elias	222 clerk	22 here
F Byda Freda-	222 "	24 "
G	Byda Margaret-	222 bookkeeper 23 "
29
