-r	Reported Residence,
c) -
0.6.	Jan. 1, 1949.
o	Occupation. .,,,	o 0
ca, bn 	
05	e	Fula, NAME.	7:1 G .,
	^	F''''
c0	o.)	Street and Number.
P4 14	r	CZ
Fleet StreetContinued
u	Zapata Rose-	38 housewife	44 here
/	DiMino Antoine	38 fisherman	52 "
w DiMino Frances-	38 clerk	22 "
x DiMino Josephine-	38 housewife	46 "
z DellOrfano Ralph	40 laborer	63 "
1057	.
A Buscanera Jerry	40 "	48 "
B	Buscanera Lena-	40 housewife	46 "
c Marano Theresa-t	40 housekeeper 42 "
D	Marano Stephanie-	40 housewife	64 "
E*Bono Lena-	40 "	69 "
F Bono Theresa-	40 stitcher	37 "
o	Sclafani Anna-	43 housewife	58 Chelsea
P	Sclafani Frank	43 fisherman	62 here
R Molea Marie-	43 housewife	36 "
s Molea Stephen	43 fisherman	42 "
T Siciliano Alexander	43 chauffeur	40 "
u	Siciliano Josephine-4	43 housewife	37 "
/	Sclafani Frank, jr	43 fisherman	28 "
w Sclafani Lucy-	43 housewife	25 "
Y Curreri Angelina-	44 stitcher	33 "
z Curreri Josephine-	44 "	26 "
1058
A Curreri Louis	44 fisherman	36 "
B	Marino Bessie B-	44 housewife	51 "
c Marino Edward A	44 packer	28 "
D	Marino Louis	44 fisherman	26 "
E	Sutera Anna-t	44 candywkr	44 "
F Graffeo Joseph	44 fisherman	30 "
G	Graffeo Lucy-	44 housewife	27 "
H*Corrieri Charles	44 barber	64 "
L	Indelicato Domenica-	45 housewife	58 "
M Indelicato Dorothy-	45 "	21 Somerville
N	Indelicato Frank	45 clerk	23 "
o	Indelicato Joseph	45 laborer	66 here
P	Marino Ella-	45 housewife	28 "
R Marino Joseph	45 shipper	29 "
s Alba Alfonso	45 merchant	60 "
T Scaduto Joseph	45 fishcutter	23 "
23
