C	-=	Reported Residence,
4	`' 7d
cu  Lr:	co' 	Jan. 1, 1949.
ao cez
15 2	FULL NAME.	'0 Z 	Occupation.
SI''
d	a)
4 1-4	r	1	Street and Number.
South Margin StreetContinued
o	Spicuzza Samuel	51 merchant	42 here
R Spinale Joseph	53 pedler	65 "
s Spinale Rose-	53 housewife	55 "
T Leo Gaetano	53 janitor	32 "
u	Leo Ramona-4	53 housewife	30 "
/	Schell John	53 laborer	32 "
w Schell Lanata-	53 housewife	32 "
Y Cazicio Margaret-	54 "	60 "
z Cazicio Salvatore	54 candymkr	50 "
9241
A Fimiani Grace-4	54 leatherwkr	21 "
B	Notaro Anthony	54 butcher	51 "
c Notaro Nettie-	54 packer	23 "
E	Adair Rose-	55 housewife	41 "
F Panzone Eugene	55 clerk	23 "
G	Costanza Pasquale	55 "	39 "
H	Costanza Pauline-	55 stitcher	39 "
K. Correnti Frances-t	55 housewife	68 , "
L	D'Angelo Fortunata-	55 "	31 "
M D'Angelo Vincent	55 laborer	33 "
o	Pease Lexina-	56 at home	75 68 Causeway
P	Charest Elizabeth-	56 housewife	25 11 Centre av
R Charest Robert C	56 painter	55 11 "
s Fleming Janet E-	56 housewife	59 Watertown
T Fleming Thomas F	56 merchant	65 "
u	Pennacchio Mary-	59 housewife	51 here
/	Pennacchio Michael	59 mortician	59 "
w Roberto Anthony	59 chauffeur	24 1166 River
x Roberto Julia-	59 housewife	21 1166 "
Y Tatz Dewey	59 chauffeur	31 here
z Tatz Rita-	59 housewife	24 "
9246	Stan iford Place
Y Miller Mae A-	1A waitress	52 here
z Martell Hannah-	1A operator	61 "
9247
A Rosell Thelma-4	1A housewife	24 9 Stani ford
B	Rosell Wallace	1A shipper	25 9 "
c LaCorcia Frank	1A electrician	44 here
D	LaCorcia John	1A shipper	65 "
73
