c)	^c!
0 .	Reported Residenc
	ki	FULL NAME.
c) 	C-Itti
0 .10	Occupation.
V PI =	g a).
R
no 	Jan. 1, 1949.
az	,	a,2 as.-	13,-=C
al	a)
r14 4	fr	r2	Street and Numbe
Chambers StreetContinued
Y Crowley Patrick	51 laborer	56 here
z Doyle Michael	51 "	54 65 Staniford
6039
A. Draffin Sam	51 "	55 here
B	Drucker Betsey-	51 ' housewife	55 26 Leverett
c Ippolito John	51 laborer	68 here
D	Mocsozker John	51 orderly	58 11 Chambers
E	Robbins Dorothy-	51 clerk	42 here
F Robbins Hyman	51 proprietor	83 "
G	Russell Laura-	51 at home	80 "
H	Stankard Joseph	51 laborer	55 "
K	Stone Goldie-	51 shopwkr	40 124 Stanwooc
L*Stone Ida-	51 at home	70 124 "
M Taylor Joseph	51 laborer	59 here
N	Trugman Joseph	51 newsdealer 58 "
o	Mason Frank	53 mechanic	28 "
P	Goff Edith-	53 operator	30 Stoneham
R Sharder Edith-	53 housewife	73 here
s Tibbetts Jennie-	53 writer	56 Stoneham
T Brown Carroll L	53 seaman	42 here
u	Brown Gladys-	53 housewife	45 "
/	Johnston Alberta-	53 "	38 "
w Johnston Walter	53 laborer	38 "
Y O'Donnell Thomas	59 retired	79 "
z McCoy Frank	59 U S A	23 "
6040
A McCoy Helen-	59 housewife	42 "
B	McCoy Owen	59 investigator 55 "
c Robins Morris	59 teacher	53 "
D	Wasseman Frank	59 retired	84 "
E	Vitala Louise-	59 housewife	57 "
F Vitala Ralph	59 shoewkr	57 "
G	Fafian Emma-t	59 housewife	66 "
H Strano Alice-	59 "	29 "
K	Strano Paul	59 cutter	35 "
L	Vadala Andrew	59 barber	44 "
M Vadala Mary-	59 housewife	39 "
N	O'Donnell Elizabeth-t	59 "	73 "
o	O'Donnell Thomas	59 retired	78 "
T Goldstein Lee-	67 housewife	42 "
u	Goldstein Morris	67 clerk	43 "
24
