6	ms
o .	Reported Residence,
,
	'61	Fuzz, NAME. 	' C5
0 kt,
V 0 cm	Occupation.	.9 
0
sz. bo 	Jan. 1, 1949.
uo	cZ 03 v-4	$:1,'"4
3	a)
1 14	r 2	Street and Number.
Seneca StreetContinued
L*Anderson Mattie P-	17 housewife	34 Lynn
m Williams Blanche E-t	19 "	39 here
N	Williams Charles	19 laborer	62 "
o	Williams Leola J-	19 housewife	36 59 W Canton
P	Taggart Lee	19 laborer	50 here
R Taggart Mattie-t	19 housewife	52 "
s Milnikowska Blanche- 21 at home	70 "
T Zaccardi Carolina-1	21	"	74 "
u	Brienzi Mary-	21 housewife	35 "
x Morgan Lewis E	23 laborer	49 "
Y Morgan Pauline-	23 housewife	45 "
z Hunter Mary A-	25 "	68 "
10144
A Hunter Sidney	25 retired	64 "
B	Parella Flora-	25 housewife	40 "
c Parella Joseph	25 laborer	54 "
D	Starek Amelia-	25 housewife	58 "
E	Starek Helen A-	25 clerk	25 "
F Starek Nellie-t	25 "	26 "
H	Zaccardi Joseph	27 laborer	36 "
K. Zaccardi Josephine-1	27 housewife	30 "
T Rowe Clarissa C-	30 "	40 9 Ohio
IJ Ellis Carrie E-	30 stitcher	28 here
/	Ellis Richard	30 waiter	30 "
w Mason Kathleen M-	30 housewife	31 "
x Mason William E	30 waiter	45 "
Y Paradis Josephine-1	31 at home	70 161 W Sixth
z Restucci Frank	31 laborer	62 here
10145
A Restucci Josephine-	31 housewife	63 "
B	Kammides Mary-	31 "	32 "
c Chadwick Lena-	31 "	43 "
D	Chadwick Paul	31 painter	44 "
E	Gulitto Leonardo	31 laborer	44 "
F Edmonds Sidney	32 "	50 "
G	Hammond John	32 "	54 New York
H	Rhinehart Robert L	32 "	64 here
K. Baptiste Noella C-	32 housewife	30 "
L	Baptiste Walter P	32 laborer	33 "
M Barbosa Marion B-	32 housewife	35 "
N	Doran John	32 laborer	25 "
71
