-	^cl	Reported Residence,
FULL NAME.	-,  cs iLZ
^.; "' 	Occupation.	69 6
Jan. 1, 1949.
a ac 	
. 7	,-	a '"
a	Cr	el)	Street and Number.
North Margin StreetContinued
K Montana Angela--	60 housewife	65 here
L Montana Salvatore	60 retired	73 "
a Auciella Ida-t	60 housewife	67 "
c Auciella Michael	60 shoewkr	32 "
3 Nardelli Celestino	60 retired	68	"
P	Nardelli Mary-	60 housewife	66 "
i*Genzale Jennie-1	60 "	78 ' "
DeVito Angelo	60 salesman	33 "
r DeVito Anthony	60 machinist	35 "
J *D eVito Carmella-1	60 housewife	55 "
/	Chiarenza Anthony	62 mechanic	31 "
( Chiarenza Edith-t	62 housewife	27 "
I' Fuscio Giovanni	62 machinist	53 "
z*Fuscio Honorina-	62 housewife	53 Italy
4067
k Marino Grace-	62 "	30 here
3 Marino Jack	62 shipper	30 "
Minichello Carmen	62 merchant	38 "
) Minichello Grace-	62 housewife	37 "
Bruno Celia-	62 "	52 "
F DiNino Enrico	64 attendant	26 "
3 DiNino Mary-	64 housewife	25 "
i Maldero Stella-	64 "	43 "
Maldero Vito	64 merchant	58 "
L	Gizzi Diomeda-	64 housewife	50 "
a Gizzi Frederick	64 baker	27 "
c Gizzi Nicholas	64 laborer	51	"
D	Gizzi Rita-	64 stitcher	25	"
P	Pasquale Marie-	64 housewife	47 "
i Pasquale Ralph	64 laborer	47 "
s Perotti Alfred	64 "	27	"
/	Perotti Susan-	64 housewife	43 "
J Manni Giaconda-	64 "	45 "
/	Manni Victor	64 laborer	56 "
/	Iencarelli Rocco	64 operator	35 62 N Margin
K	Iencarelli Virginia-	64 housewife	29 62 "
/	Andreattola Albina-	64 "	48 here
z Andreattola Felice	64 shoewkr	57 "
4068
.	Federico Albert	64 laborer	24 "
Federico Frances-	64 stitcher	28 "
35
1.
